…
### Question 4

#### 4. How do Kenya’s key allies vote compared to Kenya? The United States of America, The United Kingdom and China.

``` r
#summarize yes votes by year and country
by_year_country <- votes_processed %>% 
  group_by(year, country) %>% 
  summarize(total = n(), percent_yes = mean(vote == 1))

by_year_country
```

    ## # A tibble: 4,735 x 4
    ## # Groups:   year [34]
    ##     year country     total percent_yes
    ##    <dbl> <chr>       <int>       <dbl>
    ##  1  1947 Afghanistan    34       0.382
    ##  2  1947 Argentina      38       0.579
    ##  3  1947 Australia      38       0.553
    ##  4  1947 Belarus        38       0.5  
    ##  5  1947 Belgium        38       0.605
    ##  6  1947 Bolivia        37       0.595
    ##  7  1947 Brazil         38       0.658
    ##  8  1947 Canada         38       0.605
    ##  9  1947 Chile          38       0.658
    ## 10  1947 Colombia       35       0.543
    ## # ... with 4,725 more rows
…
